{
    "resourceType" : "ConceptMap",
    "id" : "elga-lebensmittelallergene-mapping",
    "url" : "https://termgit.elga.gv.at/ConceptMap-elga-conceptmap-lebensmittelallergene",
    "version" : "1.0.0+20221027",
    "name" : "elga-lebensmittelallergene-mapping",
    "title" : "ELGA Lebensmittelallergene Mapping",
    "status" : "active",
    "date" : "2022-10-27",
    "publisher" : "ELGA GmbH",
    "description" : "Diese ConceptMap stellt ein Mapping von den Allergien aus SNOMED CT auf die Lebensmittelallergene gemäß EU Verordnung (https://eur-lex.europa.eu/legal-content/DE/TXT/HTML/?uri=CELEX:02011R1169-20180101&from=DE#E0017) dar.",
    "sourceUri" : "https://termgit.elga.gv.at/ValueSet-elga-allergyorintoleranceagent",
    "targetUri" : "https://termgit.elga.gv.at/ValueSet-elga-lebensmittelallergene",
    "group" : [{
      "source" : "https://termgit.elga.gv.at/CodeSystem-snomed-ct-auszug",
      "target" : "https://termgit.elga.gv.at/CodeSystem-elga-lebensmittelallergene",
      "element" : [
        {
          "code": "105590001",
          "display": "Substanzen",
          "target": [
            {
              "equivalence": "unmatched"
            }
          ]
        },
        {
          "code": "52454007",
          "display": "Albumin",
          "target": [
            {
              "equivalence": "unmatched"
            }
          ]
        },
        {
          "code": "12503006",
          "display": "Aluminium",
          "target": [
            {
              "equivalence": "unmatched"
            }
          ]
        },
        {
          "code": "256447001",
          "display": "Amalgam",
          "target": [
            {
              "equivalence": "unmatched"
            }
          ]
        },
        {
          "code": "256303006",
          "display": "Ambrosia-Pollen",
          "target": [
            {
              "equivalence": "unmatched"
            }
          ]
        },
        {
          "code": "228103005",
          "display": "Antioxidantien in Lebensmitteln",
          "target": [
            {
              "equivalence": "unmatched"
            }
          ]
        },
        {
          "code": "735215001",
          "display": "Apfel",
          "target": [
            {
              "equivalence": "unmatched"
            }
          ]
        },
        {
          "code": "735214002",
          "display": "Aprikosen",
          "target": [
            {
              "equivalence": "unmatched"
            }
          ]
        },
        {
          "code": "11526002",
          "display": "Aspartam",
          "target": [
            {
              "equivalence": "unmatched"
            }
          ]
        },
        {
          "code": "736031006",
          "display": "Austern",
          "target": [
            {
              "code": "EU0014",
              "display": "Weichtiere",
              "equivalence": "subsumes"
            }
          ]
        },
        {
          "code": "256307007",
          "display": "Bananen",
          "target": [
            {
              "equivalence": "unmatched"
            }
          ]
        },
        {
          "code": "256260009",
          "display": "Baum- und Strauchpollen",
          "target": [
            {
              "equivalence": "unmatched"
            }
          ]
        },
        {
          "code": "256305004",
          "display": "Baumharze",
          "target": [
            {
              "equivalence": "unmatched"
            }
          ]
        },
        {
          "code": "89889006",
          "display": "Baumwollfasern",
          "target": [
            {
              "equivalence": "unmatched"
            }
          ]
        },
        {
          "code": "256293000",
          "display": "Beifu\u00df-Pollen",
          "target": [
            {
              "equivalence": "unmatched"
            }
          ]
        },
        {
          "code": "288328004",
          "display": "Bienengifte",
          "target": [
            {
              "equivalence": "unmatched"
            }
          ]
        },
        {
          "code": "53410008",
          "display": "Bier",
          "target": [
            {
              "code": "EU0001",
              "display": "Glutenhaltiges Getreide",
              "equivalence": "subsumes"
            }
          ]
        },
        {
          "code": "255640000",
          "display": "Biozid (Desinfektionsmittel, Rattengifte, Holzschutzmittel)",
          "target": [
            {
              "equivalence": "unmatched"
            }
          ]
        },
        {
          "code": "256262001",
          "display": "Birken-Pollen",
          "target": [
            {
              "equivalence": "unmatched"
            }
          ]
        },
        {
          "code": "412061001",
          "display": "Blaubeeren",
          "target": [
            {
              "equivalence": "unmatched"
            }
          ]
        },
        {
          "code": "256292005",
          "display": "Blumen- und Kr\u00e4uterpollen",
          "target": [
            {
              "equivalence": "unmatched"
            }
          ]
        },
        {
          "code": "256354006",
          "display": "Bohnen",
          "target": [
            {
              "equivalence": "unmatched"
            }
          ]
        },
        {
          "code": "11894001",
          "display": "Botulinumtoxin (BTX)",
          "target": [
            {
              "equivalence": "unmatched"
            }
          ]
        },
        {
          "code": "21587009",
          "display": "Brennnesseln",
          "target": [
            {
              "equivalence": "unmatched"
            }
          ]
        },
        {
          "code": "9021002",
          "display": "Carbaryl-Insektizid",
          "target": [
            {
              "equivalence": "unmatched"
            }
          ]
        },
        {
          "code": "227493005",
          "display": "Cashew-Kerne",
          "target": [
            {
              "code": "EU0008",
              "display": "Schalenfr\u00fcchte",
              "equivalence": "subsumes"
            }
          ]
        },
        {
          "code": "119417004",
          "display": "Chlorkohlenwasserstoff-Insektizide",
          "target": [
            {
              "equivalence": "unmatched"
            }
          ]
        },
        {
          "code": "116549003",
          "display": "Chlorkohlenwasserstoff-Pestizide",
          "target": [
            {
              "equivalence": "unmatched"
            }
          ]
        },
        {
          "code": "111070004",
          "display": "Chrom",
          "target": [
            {
              "equivalence": "unmatched"
            }
          ]
        },
        {
          "code": "59351004",
          "display": "Citrate",
          "target": [
            {
              "equivalence": "unmatched"
            }
          ]
        },
        {
          "code": "227395004",
          "display": "Curry (Gew\u00fcrz)",
          "target": [
            {
              "equivalence": "unmatched"
            }
          ]
        },
        {
          "code": "387293003",
          "display": "Dithranol",
          "target": [
            {
              "equivalence": "unmatched"
            }
          ]
        },
        {
          "code": "102263004",
          "display": "Eier (verzehrbar)",
          "target": [
            {
              "code": "EU0003",
              "display": "Eier",
              "equivalence": "subsumes"
            }
          ]
        },
        {
          "code": "256443002",
          "display": "Eiklar",
          "target": [
            {
              "code": "EU0003",
              "display": "Eier",
              "equivalence": "subsumes"
            }
          ]
        },
        {
          "code": "303300008",
          "display": "Eiproteine (Ovomukoid, Ovalbumin)",
          "target": [
            {
              "code": "EU0003",
              "display": "Eier",
              "equivalence": "subsumes"
            }
          ]
        },
        {
          "code": "65345002",
          "display": "Epoxidharze",
          "target": [
            {
              "equivalence": "unmatched"
            }
          ]
        },
        {
          "code": "102261002",
          "display": "Erdbeeren",
          "target": [
            {
              "equivalence": "unmatched"
            }
          ]
        },
        {
          "code": "762952008",
          "display": "Erdn\u00fcsse",
          "target": [
            {
              "code": "EU0005",
              "display": "Erdn\u00fcsse",
              "equivalence": "subsumes"
            }
          ]
        },
        {
          "code": "256261008",
          "display": "Erlen-Pollen",
          "target": [
            {
              "equivalence": "unmatched"
            }
          ]
        },
        {
          "code": "12510000",
          "display": "Eukalyptus\u00f6le",
          "target": [
            {
              "equivalence": "unmatched"
            }
          ]
        },
        {
          "code": "61789006",
          "display": "Farbstoffe",
          "target": [
            {
              "equivalence": "unmatched"
            }
          ]
        },
        {
          "code": "256435007",
          "display": "Federn",
          "target": [
            {
              "equivalence": "unmatched"
            }
          ]
        },
        {
          "code": "227425007",
          "display": "Feigen",
          "target": [
            {
              "equivalence": "unmatched"
            }
          ]
        },
        {
          "code": "472731004",
          "display": "Feigen-Pollen",
          "target": [
            {
              "equivalence": "unmatched"
            }
          ]
        },
        {
          "code": "735971005",
          "display": "Fische",
          "target": [
            {
              "code": "EU0004",
              "display": "Fische",
              "equivalence": "subsumes"
            }
          ]
        },
        {
          "code": "28647000",
          "display": "Fleisch",
          "target": [
            {
              "equivalence": "unmatched"
            }
          ]
        },
        {
          "code": "735972003",
          "display": "Flusskrebse",
          "target": [
            {
              "code": "EU0002",
              "display": "Krebstiere",
              "equivalence": "subsumes"
            }
          ]
        },
        {
          "code": "111095003",
          "display": "Formaldehyd",
          "target": [
            {
              "equivalence": "unmatched"
            }
          ]
        },
        {
          "code": "72511004",
          "display": "Fr\u00fcchte",
          "target": [
            {
              "equivalence": "unmatched"
            }
          ]
        },
        {
          "code": "58202007",
          "display": "Fruktose",
          "target": [
            {
              "equivalence": "unmatched"
            }
          ]
        },
        {
          "code": "43392006",
          "display": "G\u00e4nsef\u00fc\u00dfe",
          "target": [
            {
              "equivalence": "unmatched"
            }
          ]
        },
        {
          "code": "278840001",
          "display": "Garnelen",
          "target": [
            {
              "code": "EU0002",
              "display": "Krebstiere",
              "equivalence": "subsumes"
            }
          ]
        },
        {
          "code": "28230009",
          "display": "Gefl\u00fcgel",
          "target": [
            {
              "equivalence": "unmatched"
            }
          ]
        },
        {
          "code": "418266005",
          "display": "gelbe Vaseline",
          "target": [
            {
              "equivalence": "unmatched"
            }
          ]
        },
        {
          "code": "80259003",
          "display": "Geschmacksverst\u00e4rker in Lebensmitteln",
          "target": [
            {
              "equivalence": "unmatched"
            }
          ]
        },
        {
          "code": "23182003",
          "display": "Getreide",
          "target": [
            {
              "code": "EU0001",
              "display": "Glutenhaltiges Getreide",
              "equivalence": "subsumes"
            }
          ]
        },
        {
          "code": "260118006",
          "display": "Glaskraut-Pollen",
          "target": [
            {
              "equivalence": "unmatched"
            }
          ]
        },
        {
          "code": "430503006",
          "display": "Glutamat",
          "target": [
            {
              "equivalence": "unmatched"
            }
          ]
        },
        {
          "code": "89811004",
          "display": "Gluten",
          "target": [
            {
              "code": "EU0001",
              "display": "Glutenhaltiges Getreide",
              "equivalence": "subsumes"
            }
          ]
        },
        {
          "code": "2309006",
          "display": "Gold",
          "target": [
            {
              "equivalence": "unmatched"
            }
          ]
        },
        {
          "code": "422304003",
          "display": "Gr\u00e4ser (S\u00fc\u00dfgr\u00e4ser)",
          "target": [
            {
              "equivalence": "unmatched"
            }
          ]
        },
        {
          "code": "256277009",
          "display": "Gras-Pollen",
          "target": [
            {
              "equivalence": "unmatched"
            }
          ]
        },
        {
          "code": "412145001",
          "display": "Haarf\u00e4rbemittel",
          "target": [
            {
              "equivalence": "unmatched"
            }
          ]
        },
        {
          "code": "418504009",
          "display": "Hafer",
          "target": [
            {
              "code": "EU0001",
              "display": "Glutenhaltiges Getreide",
              "equivalence": "subsumes"
            }
          ]
        },
        {
          "code": "256353000",
          "display": "Haseln\u00fcsse",
          "target": [
            {
              "code": "EU0008",
              "display": "Schalenfr\u00fcchte",
              "equivalence": "subsumes"
            }
          ]
        },
        {
          "code": "256263006",
          "display": "Hasel-Pollen",
          "target": [
            {
              "equivalence": "unmatched"
            }
          ]
        },
        {
          "code": "128488006",
          "display": "Hausstaub",
          "target": [
            {
              "equivalence": "unmatched"
            }
          ]
        },
        {
          "code": "406466009",
          "display": "Hausstaub-Allergene",
          "target": [
            {
              "equivalence": "unmatched"
            }
          ]
        },
        {
          "code": "711093001",
          "display": "Hausstaubmilben-Proteine",
          "target": [
            {
              "equivalence": "unmatched"
            }
          ]
        },
        {
          "code": "711322006",
          "display": "Helminthen (Eingeweidew\u00fcrmer)-Protein",
          "target": [
            {
              "equivalence": "unmatched"
            }
          ]
        },
        {
          "code": "227444000",
          "display": "Himbeeren",
          "target": [
            {
              "equivalence": "unmatched"
            }
          ]
        },
        {
          "code": "14402002",
          "display": "Holz",
          "target": [
            {
              "equivalence": "unmatched"
            }
          ]
        },
        {
          "code": "227313005",
          "display": "H\u00fclsenfr\u00fcchte",
          "target": [
            {
              "equivalence": "unmatched"
            }
          ]
        },
        {
          "code": "736162008",
          "display": "Hummer",
          "target": [
            {
              "code": "EU0002",
              "display": "Krebstiere",
              "equivalence": "subsumes"
            }
          ]
        },
        {
          "code": "260154005",
          "display": "Hunde-Hautschuppen",
          "target": [
            {
              "equivalence": "unmatched"
            }
          ]
        },
        {
          "code": "227400003",
          "display": "Ingwer",
          "target": [
            {
              "equivalence": "unmatched"
            }
          ]
        },
        {
          "code": "406470001",
          "display": "Insekten-Allergene",
          "target": [
            {
              "equivalence": "unmatched"
            }
          ]
        },
        {
          "code": "280939008",
          "display": "Insektengifte",
          "target": [
            {
              "equivalence": "unmatched"
            }
          ]
        },
        {
          "code": "260174003",
          "display": "Kabeljaue",
          "target": [
            {
              "code": "EU0004",
              "display": "Fische",
              "equivalence": "subsumes"
            }
          ]
        },
        {
          "code": "80237000",
          "display": "Kakaobutter",
          "target": [
            {
              "equivalence": "unmatched"
            }
          ]
        },
        {
          "code": "14241002",
          "display": "Kakerlaken",
          "target": [
            {
              "equivalence": "unmatched"
            }
          ]
        },
        {
          "code": "74774004",
          "display": "K\u00e4lteurtikaria",
          "target": [
            {
              "equivalence": "unmatched"
            }
          ]
        },
        {
          "code": "88818001",
          "display": "Kaninchen",
          "target": [
            {
              "equivalence": "unmatched"
            }
          ]
        },
        {
          "code": "412153009",
          "display": "Kaninchen-Hautschuppen",
          "target": [
            {
              "equivalence": "unmatched"
            }
          ]
        },
        {
          "code": "256319004",
          "display": "Karotten",
          "target": [
            {
              "equivalence": "unmatched"
            }
          ]
        },
        {
          "code": "735053000",
          "display": "Kartoffeln",
          "target": [
            {
              "equivalence": "unmatched"
            }
          ]
        },
        {
          "code": "102264005",
          "display": "K\u00e4se",
          "target": [
            {
              "code": "EU0007",
              "display": "Milch",
              "equivalence": "subsumes"
            }
          ]
        },
        {
          "code": "260152009",
          "display": "Katze-Hautschuppen",
          "target": [
            {
              "equivalence": "unmatched"
            }
          ]
        },
        {
          "code": "43230003",
          "display": "Kautschuk",
          "target": [
            {
              "equivalence": "unmatched"
            }
          ]
        },
        {
          "code": "735248001",
          "display": "Kirschen",
          "target": [
            {
              "equivalence": "unmatched"
            }
          ]
        },
        {
          "code": "260176001",
          "display": "Kiwi",
          "target": [
            {
              "equivalence": "unmatched"
            }
          ]
        },
        {
          "code": "57126000",
          "display": "Klebstoff",
          "target": [
            {
              "equivalence": "unmatched"
            }
          ]
        },
        {
          "code": "418920007",
          "display": "Klebstoffe",
          "target": [
            {
              "equivalence": "unmatched"
            }
          ]
        },
        {
          "code": "735030001",
          "display": "Knoblauch",
          "target": [
            {
              "equivalence": "unmatched"
            }
          ]
        },
        {
          "code": "54808007",
          "display": "Kobalt",
          "target": [
            {
              "equivalence": "unmatched"
            }
          ]
        },
        {
          "code": "735211005",
          "display": "Kokusn\u00fcsse",
          "target": [
            {
              "equivalence": "unmatched"
            }
          ]
        },
        {
          "code": "255840003",
          "display": "Kolophonium",
          "target": [
            {
              "equivalence": "unmatched"
            }
          ]
        },
        {
          "code": "51386004",
          "display": "Konservierungsmittel in Lebensmitteln",
          "target": [
            {
              "equivalence": "unmatched"
            }
          ]
        },
        {
          "code": "406473004",
          "display": "Kontakt-Allergene",
          "target": [
            {
              "equivalence": "unmatched"
            }
          ]
        },
        {
          "code": "264331002",
          "display": "K\u00f6rner (Getreide, Pseudogetreide, H\u00fclsenfr\u00fcchte, Sonnenblumen)",
          "target": [
            {
              "code": "EU0001",
              "display": "Glutenhaltiges Getreide",
              "equivalence": "subsumes"
            }
          ]
        },
        {
          "code": "289122001",
          "display": "Kosmetika",
          "target": [
            {
              "equivalence": "unmatched"
            }
          ]
        },
        {
          "code": "736159005",
          "display": "Krabben",
          "target": [
            {
              "code": "EU0002",
              "display": "Krebstiere",
              "equivalence": "subsumes"
            }
          ]
        },
        {
          "code": "227374009",
          "display": "Kr\u00e4uter und Gew\u00fcrze",
          "target": [
            {
              "equivalence": "unmatched"
            }
          ]
        },
        {
          "code": "421133009",
          "display": "Krustentiere",
          "target": [
            {
              "code": "EU0002",
              "display": "Krebstiere",
              "equivalence": "subsumes"
            }
          ]
        },
        {
          "code": "264295007",
          "display": "Kuhmilch-Proteine",
          "target": [
            {
              "code": "EU0007",
              "display": "Milch",
              "equivalence": "subsumes"
            }
          ]
        },
        {
          "code": "66925006",
          "display": "Kupfer",
          "target": [
            {
              "equivalence": "unmatched"
            }
          ]
        },
        {
          "code": "47703008",
          "display": "Laktose",
          "target": [
            {
              "code": "EU0007",
              "display": "Milch",
              "equivalence": "subsumes"
            }
          ]
        },
        {
          "code": "772245002",
          "display": "Lanolin-Alkohol",
          "target": [
            {
              "equivalence": "unmatched"
            }
          ]
        },
        {
          "code": "111088007",
          "display": "Latex",
          "target": [
            {
              "equivalence": "unmatched"
            }
          ]
        },
        {
          "code": "406465008",
          "display": "Lebensmittel-Allergene",
          "target": [
            {
              "equivalence": "unmatched"
            }
          ]
        },
        {
          "code": "59533004",
          "display": "Lebensmittel-Zusatzstoffe",
          "target": [
            {
              "equivalence": "unmatched"
            }
          ]
        },
        {
          "code": "19627002",
          "display": "Leder",
          "target": [
            {
              "equivalence": "unmatched"
            }
          ]
        },
        {
          "code": "115664001",
          "display": "Photoallergische Dermatitis",
          "target": [
            {
              "equivalence": "unmatched"
            }
          ]
        },
        {
          "code": "227430006",
          "display": "Limetten",
          "target": [
            {
              "equivalence": "unmatched"
            }
          ]
        },
        {
          "code": "63876004",
          "display": "Lupinen",
          "target": [
            {
              "code": "EU0013",
              "display": "Lupinen",
              "equivalence": "subsumes"
            }
          ]
        },
        {
          "code": "412357001",
          "display": "Mais",
          "target": [
            {
              "equivalence": "unmatched"
            }
          ]
        },
        {
          "code": "391737006",
          "display": "Mandel\u00f6le",
          "target": [
            {
              "code": "EU0008",
              "display": "Schalenfr\u00fcchte",
              "equivalence": "subsumes"
            }
          ]
        },
        {
          "code": "260179008",
          "display": "Mango",
          "target": [
            {
              "equivalence": "unmatched"
            }
          ]
        },
        {
          "code": "256419000",
          "display": "Maus-Epithelien",
          "target": [
            {
              "equivalence": "unmatched"
            }
          ]
        },
        {
          "code": "260156007",
          "display": "Maus-Urin-Proteine",
          "target": [
            {
              "equivalence": "unmatched"
            }
          ]
        },
        {
          "code": "44027008",
          "display": "Meeresfr\u00fcchte",
          "target": [
            {
              "code": "EU0014",
              "display": "Weichtiere",
              "equivalence": "subsumes"
            }
          ]
        },
        {
          "code": "63766005",
          "display": "Mehl",
          "target": [
            {
              "code": "EU0001",
              "display": "Glutenhaltiges Getreide",
              "equivalence": "subsumes"
            }
          ]
        },
        {
          "code": "260177005",
          "display": "Melonen",
          "target": [
            {
              "equivalence": "unmatched"
            }
          ]
        },
        {
          "code": "261243003",
          "display": "Messing",
          "target": [
            {
              "equivalence": "unmatched"
            }
          ]
        },
        {
          "code": "2799001",
          "display": "Methylbenzethoniumchlorid",
          "target": [
            {
              "equivalence": "unmatched"
            }
          ]
        },
        {
          "code": "70813002",
          "display": "Milch",
          "target": [
            {
              "code": "EU0007",
              "display": "Milch",
              "equivalence": "subsumes"
            }
          ]
        },
        {
          "code": "255667006",
          "display": "Mineral\u00f6le (Paraffin\u00f6l, Petroleum, ?)",
          "target": [
            {
              "equivalence": "unmatched"
            }
          ]
        },
        {
          "code": "226760005",
          "display": "Molkereiprodukte",
          "target": [
            {
              "code": "EU0007",
              "display": "Milch",
              "equivalence": "subsumes"
            }
          ]
        },
        {
          "code": "115589000",
          "display": "Monoethanolamin",
          "target": [
            {
              "equivalence": "unmatched"
            }
          ]
        },
        {
          "code": "736030007",
          "display": "Muscheln (Venusmuschel, ?)",
          "target": [
            {
              "code": "EU0014",
              "display": "Weichtiere",
              "equivalence": "subsumes"
            }
          ]
        },
        {
          "code": "77188000",
          "display": "Muscheln (Miesmuschel, ...)",
          "target": [
            {
              "code": "EU0014",
              "display": "Weichtiere",
              "equivalence": "subsumes"
            }
          ]
        },
        {
          "code": "735046009",
          "display": "Muskatn\u00fcsse",
          "target": [
            {
              "code": "EU0008",
              "display": "Schalenfr\u00fcchte",
              "equivalence": "subsumes"
            }
          ]
        },
        {
          "code": "412160003",
          "display": "Nahtmaterial-Allergene",
          "target": [
            {
              "equivalence": "unmatched"
            }
          ]
        },
        {
          "code": "227389000",
          "display": "Nelken",
          "target": [
            {
              "equivalence": "unmatched"
            }
          ]
        },
        {
          "code": "33396006",
          "display": "Nickel",
          "target": [
            {
              "equivalence": "unmatched"
            }
          ]
        },
        {
          "code": "13577000",
          "display": "N\u00fcsse",
          "target": [
            {
              "code": "EU0008",
              "display": "Schalenfr\u00fcchte",
              "equivalence": "subsumes"
            }
          ]
        },
        {
          "code": "230034002",
          "display": "N\u00fcsse und \u00d6lsamen (\u00d6lsaat)",
          "target": [
            {
              "code": "EU0008",
              "display": "Schalenfr\u00fcchte",
              "equivalence": "subsumes"
            }
          ]
        },
        {
          "code": "735979007",
          "display": "Oktopusse",
          "target": [
            {
              "code": "EU0014",
              "display": "Weichtiere",
              "equivalence": "subsumes"
            }
          ]
        },
        {
          "code": "260126003",
          "display": "Oliven-Pollen",
          "target": [
            {
              "equivalence": "unmatched"
            }
          ]
        },
        {
          "code": "406774009",
          "display": "Omega-3-Fetts\u00e4uren aus Fisch",
          "target": [
            {
              "code": "EU0004",
              "display": "Fische",
              "equivalence": "subsumes"
            }
          ]
        },
        {
          "code": "256306003",
          "display": "Orangen",
          "target": [
            {
              "equivalence": "unmatched"
            }
          ]
        },
        {
          "code": "712720004",
          "display": "Pappel-Pollen",
          "target": [
            {
              "equivalence": "unmatched"
            }
          ]
        },
        {
          "code": "227408005",
          "display": "Paprika",
          "target": [
            {
              "equivalence": "unmatched"
            }
          ]
        },
        {
          "code": "734881000",
          "display": "Paradeiser",
          "target": [
            {
              "equivalence": "unmatched"
            }
          ]
        },
        {
          "code": "418785009",
          "display": "Parfum",
          "target": [
            {
              "equivalence": "unmatched"
            }
          ]
        },
        {
          "code": "410853002",
          "display": "Perfluor Chemikalien",
          "target": [
            {
              "equivalence": "unmatched"
            }
          ]
        },
        {
          "code": "255842006",
          "display": "Perubalsam",
          "target": [
            {
              "equivalence": "unmatched"
            }
          ]
        },
        {
          "code": "59545008",
          "display": "Pestizide",
          "target": [
            {
              "equivalence": "unmatched"
            }
          ]
        },
        {
          "code": "412066006",
          "display": "Pfeffer",
          "target": [
            {
              "equivalence": "unmatched"
            }
          ]
        },
        {
          "code": "256417003",
          "display": "Pferde-Hautschuppen",
          "target": [
            {
              "equivalence": "unmatched"
            }
          ]
        },
        {
          "code": "735049002",
          "display": "Pfirsich",
          "target": [
            {
              "equivalence": "unmatched"
            }
          ]
        },
        {
          "code": "116637007",
          "display": "Pilz-Antigene (Einzellige Pilze)",
          "target": [
            {
              "equivalence": "unmatched"
            }
          ]
        },
        {
          "code": "735045008",
          "display": "Pilze (Speise- und Giftpilze)",
          "target": [
            {
              "equivalence": "unmatched"
            }
          ]
        },
        {
          "code": "227511008",
          "display": "Pinienkerne",
          "target": [
            {
              "equivalence": "unmatched"
            }
          ]
        },
        {
          "code": "227512001",
          "display": "Pistazien",
          "target": [
            {
              "code": "EU0008",
              "display": "Schalenfr\u00fcchte",
              "equivalence": "subsumes"
            }
          ]
        },
        {
          "code": "387398009",
          "display": "Podophyllum Harze",
          "target": [
            {
              "equivalence": "unmatched"
            }
          ]
        },
        {
          "code": "256259004",
          "display": "Pollen",
          "target": [
            {
              "equivalence": "unmatched"
            }
          ]
        },
        {
          "code": "256504004",
          "display": "Polykarbonat (Zahn\u00e4rztlicher Werkstoff)",
          "target": [
            {
              "equivalence": "unmatched"
            }
          ]
        },
        {
          "code": "83619009",
          "display": "Polyvinylalkohol",
          "target": [
            {
              "equivalence": "unmatched"
            }
          ]
        },
        {
          "code": "255970007",
          "display": "Propolis",
          "target": [
            {
              "equivalence": "unmatched"
            }
          ]
        },
        {
          "code": "311846002",
          "display": "Pyrethroid-Insektizide",
          "target": [
            {
              "equivalence": "unmatched"
            }
          ]
        },
        {
          "code": "45262002",
          "display": "Quecksilber",
          "target": [
            {
              "equivalence": "unmatched"
            }
          ]
        },
        {
          "code": "67324005",
          "display": "Reis",
          "target": [
            {
              "equivalence": "unmatched"
            }
          ]
        },
        {
          "code": "260153004",
          "display": "Rinder-Hautschuppen",
          "target": [
            {
              "equivalence": "unmatched"
            }
          ]
        },
        {
          "code": "412068007",
          "display": "Roggen",
          "target": [
            {
              "code": "EU0001",
              "display": "Glutenhaltiges Getreide",
              "equivalence": "subsumes"
            }
          ]
        },
        {
          "code": "226915003",
          "display": "rotes Fleisch",
          "target": [
            {
              "equivalence": "unmatched"
            }
          ]
        },
        {
          "code": "264337003",
          "display": "Samen",
          "target": [
            {
              "equivalence": "unmatched"
            }
          ]
        },
        {
          "code": "128489003",
          "display": "Sand",
          "target": [
            {
              "equivalence": "unmatched"
            }
          ]
        },
        {
          "code": "726764009",
          "display": "Saubohnen",
          "target": [
            {
              "equivalence": "unmatched"
            }
          ]
        },
        {
          "code": "735029006",
          "display": "Schalentiere",
          "target": [
            {
              "code": "EU0014",
              "display": "Weichtiere",
              "equivalence": "subsumes"
            }
          ]
        },
        {
          "code": "722071008",
          "display": "Schimmelpilz-Antigene",
          "target": [
            {
              "equivalence": "unmatched"
            }
          ]
        },
        {
          "code": "15838006",
          "display": "Schnecken",
          "target": [
            {
              "code": "EU0014",
              "display": "Weichtiere",
              "equivalence": "subsumes"
            }
          ]
        },
        {
          "code": "102262009",
          "display": "Schokolade",
          "target": [
            {
              "equivalence": "unmatched"
            }
          ]
        },
        {
          "code": "226934003",
          "display": "Schweinefleisch",
          "target": [
            {
              "equivalence": "unmatched"
            }
          ]
        },
        {
          "code": "412156001",
          "display": "Seide",
          "target": [
            {
              "equivalence": "unmatched"
            }
          ]
        },
        {
          "code": "14423008",
          "display": "Selbstklebende Bandagen",
          "target": [
            {
              "equivalence": "unmatched"
            }
          ]
        },
        {
          "code": "256326004",
          "display": "Sellerie",
          "target": [
            {
              "code": "EU0009",
              "display": "Sellerie",
              "equivalence": "subsumes"
            }
          ]
        },
        {
          "code": "51905005",
          "display": "Senf",
          "target": [
            {
              "code": "EU0010",
              "display": "Senf",
              "equivalence": "subsumes"
            }
          ]
        },
        {
          "code": "260167008",
          "display": "Sesam-Samen",
          "target": [
            {
              "code": "EU0011",
              "display": "Sesamsamen",
              "equivalence": "subsumes"
            }
          ]
        },
        {
          "code": "41967008",
          "display": "Silber",
          "target": [
            {
              "equivalence": "unmatched"
            }
          ]
        },
        {
          "code": "13652007",
          "display": "Silikon",
          "target": [
            {
              "equivalence": "unmatched"
            }
          ]
        },
        {
          "code": "303314008",
          "display": "Skorpiongifte",
          "target": [
            {
              "equivalence": "unmatched"
            }
          ]
        },
        {
          "code": "256355007",
          "display": "Sojabohnen",
          "target": [
            {
              "code": "EU0006",
              "display": "Sojabohnen",
              "equivalence": "subsumes"
            }
          ]
        },
        {
          "code": "7791007",
          "display": "Sojaproteine",
          "target": [
            {
              "code": "EU0006",
              "display": "Sojabohnen",
              "equivalence": "subsumes"
            }
          ]
        },
        {
          "code": "734846002",
          "display": "Sperma",
          "target": [
            {
              "equivalence": "unmatched"
            }
          ]
        },
        {
          "code": "303315009",
          "display": "Spinnengifte",
          "target": [
            {
              "equivalence": "unmatched"
            }
          ]
        },
        {
          "code": "227259009",
          "display": "Spitzwegerich",
          "target": [
            {
              "equivalence": "unmatched"
            }
          ]
        },
        {
          "code": "33008008",
          "display": "Staub",
          "target": [
            {
              "equivalence": "unmatched"
            }
          ]
        },
        {
          "code": "767406000",
          "display": "Sulfite und Sulfitderivate",
          "target": [
            {
              "equivalence": "unmatched"
            }
          ]
        },
        {
          "code": "415710007",
          "display": "Terpene",
          "target": [
            {
              "equivalence": "unmatched"
            }
          ]
        },
        {
          "code": "256245006",
          "display": "Textilien",
          "target": [
            {
              "equivalence": "unmatched"
            }
          ]
        },
        {
          "code": "227144008",
          "display": "Thunfische",
          "target": [
            {
              "code": "EU0004",
              "display": "Fische",
              "equivalence": "subsumes"
            }
          ]
        },
        {
          "code": "406472009",
          "display": "Tierepithelien",
          "target": [
            {
              "equivalence": "unmatched"
            }
          ]
        },
        {
          "code": "276310004",
          "display": "Tierhaare",
          "target": [
            {
              "equivalence": "unmatched"
            }
          ]
        },
        {
          "code": "264287008",
          "display": "Tier-Hautschuppen",
          "target": [
            {
              "equivalence": "unmatched"
            }
          ]
        },
        {
          "code": "735006003",
          "display": "Kalmare",
          "target": [
            {
              "code": "EU0014",
              "display": "Weichtiere",
              "equivalence": "subsumes"
            }
          ]
        },
        {
          "code": "38946001",
          "display": "Tintenfische",
          "target": [
            {
              "code": "EU0014",
              "display": "Weichtiere",
              "equivalence": "subsumes"
            }
          ]
        },
        {
          "code": "419604006",
          "display": "Unkr\u00e4uter-Pollen (Kamille, Chrysanthemen, L\u00f6wenzahn, Japanischer Hopfen, Lupine, Margerite, Raps)",
          "target": [
            {
              "equivalence": "unmatched"
            }
          ]
        },
        {
          "code": "412070003",
          "display": "Vanille",
          "target": [
            {
              "equivalence": "unmatched"
            }
          ]
        },
        {
          "code": "256352005",
          "display": "Waln\u00fcsse",
          "target": [
            {
              "code": "EU0008",
              "display": "Schalenfr\u00fcchte",
              "equivalence": "subsumes"
            }
          ]
        },
        {
          "code": "419420009",
          "display": "Wassermelonen",
          "target": [
            {
              "equivalence": "unmatched"
            }
          ]
        },
        {
          "code": "419633007",
          "display": "wei\u00dfe Vaseline",
          "target": [
            {
              "equivalence": "unmatched"
            }
          ]
        },
        {
          "code": "412071004",
          "display": "Weizen",
          "target": [
            {
              "code": "EU0001",
              "display": "Glutenhaltiges Getreide",
              "equivalence": "subsumes"
            }
          ]
        },
        {
          "code": "256440004",
          "display": "Wespengifte",
          "target": [
            {
              "equivalence": "unmatched"
            }
          ]
        },
        {
          "code": "412161004",
          "display": "Wolle",
          "target": [
            {
              "equivalence": "unmatched"
            }
          ]
        },
        {
          "code": "42416001",
          "display": "Wollfett",
          "target": [
            {
              "equivalence": "unmatched"
            }
          ]
        },
        {
          "code": "59334006",
          "display": "Zement",
          "target": [
            {
              "equivalence": "unmatched"
            }
          ]
        },
        {
          "code": "227388008",
          "display": "Zimt",
          "target": [
            {
              "equivalence": "unmatched"
            }
          ]
        },
        {
          "code": "735340006",
          "display": "Zitronen",
          "target": [
            {
              "equivalence": "unmatched"
            }
          ]
        },
        {
          "code": "102259006",
          "display": "Zitrusfr\u00fcchte",
          "target": [
            {
              "equivalence": "unmatched"
            }
          ]
        },
        {
          "code": "735047000",
          "display": "Zwiebeln",
          "target": [
            {
              "equivalence": "unmatched"
            }
          ]
        },
        {
          "code": "289949002",
          "display": "Zypressen-Pollen",
          "target": [
            {
              "equivalence": "unmatched"
            }
          ]
        }
      ]
    }]
}